run,iterationvars,FatTreeSize,numShortFlows,repetition,Module,Name,
General-2195-20190624-07:00:54-79360,"8, ""permTM"", 10, 70",8,10,0,FatTreeTopology.Pod[0].racks[0].servers[0].ppp[0].queue,dropPk:count,0
General-2195-20190624-07:00:54-79360,"8, ""permTM"", 10, 70",8,10,0,FatTreeTopology.Pod[0].racks[0].servers[1].ppp[0].queue,dropPk:count,0
General-2195-20190624-07:00:54-79360,"8, ""permTM"", 10, 70",8,10,0,FatTreeTopology.Pod[0].racks[0].servers[2].ppp[0].queue,dropPk:count,0
General-2195-20190624-07:00:54-79360,"8, ""permTM"", 10, 70",8,10,0,FatTreeTopology.Pod[0].racks[0].servers[3].ppp[0].queue,dropPk:count,0
General-2195-20190624-07:00:54-79360,"8, ""permTM"", 10, 70",8,10,0,FatTreeTopology.Pod[0].racks[1].servers[0].ppp[0].queue,dropPk:count,0
General-2195-20190624-07:00:54-79360,"8, ""permTM"", 10, 70",8,10,0,FatTreeTopology.Pod[0].racks[1].servers[1].ppp[0].queue,dropPk:count,0
General-2195-20190624-07:00:54-79360,"8, ""permTM"", 10, 70",8,10,0,FatTreeTopology.Pod[0].racks[1].servers[2].ppp[0].queue,dropPk:count,0
General-2195-20190624-07:00:54-79360,"8, ""permTM"", 10, 70",8,10,0,FatTreeTopology.Pod[0].racks[1].servers[3].ppp[0].queue,dropPk:count,0
General-2195-20190624-07:00:54-79360,"8, ""permTM"", 10, 70",8,10,0,FatTreeTopology.Pod[0].racks[2].servers[0].ppp[0].queue,dropPk:count,0
General-2195-20190624-07:00:54-79360,"8, ""permTM"", 10, 70",8,10,0,FatTreeTopology.Pod[0].racks[2].servers[1].ppp[0].queue,dropPk:count,0
General-2195-20190624-07:00:54-79360,"8, ""permTM"", 10, 70",8,10,0,FatTreeTopology.Pod[0].racks[2].servers[2].ppp[0].queue,dropPk:count,0
General-2195-20190624-07:00:54-79360,"8, ""permTM"", 10, 70",8,10,0,FatTreeTopology.Pod[0].racks[2].servers[3].ppp[0].queue,dropPk:count,0
General-2195-20190624-07:00:54-79360,"8, ""permTM"", 10, 70",8,10,0,FatTreeTopology.Pod[0].racks[3].servers[0].ppp[0].queue,dropPk:count,0
General-2195-20190624-07:00:54-79360,"8, ""permTM"", 10, 70",8,10,0,FatTreeTopology.Pod[0].racks[3].servers[1].ppp[0].queue,dropPk:count,0
General-2195-20190624-07:00:54-79360,"8, ""permTM"", 10, 70",8,10,0,FatTreeTopology.Pod[0].racks[3].servers[2].ppp[0].queue,dropPk:count,0
General-2195-20190624-07:00:54-79360,"8, ""permTM"", 10, 70",8,10,0,FatTreeTopology.Pod[0].racks[3].servers[3].ppp[0].queue,dropPk:count,0
General-2195-20190624-07:00:54-79360,"8, ""permTM"", 10, 70",8,10,0,FatTreeTopology.Pod[1].racks[0].servers[0].ppp[0].queue,dropPk:count,0
General-2195-20190624-07:00:54-79360,"8, ""permTM"", 10, 70",8,10,0,FatTreeTopology.Pod[1].racks[0].servers[1].ppp[0].queue,dropPk:count,0
General-2195-20190624-07:00:54-79360,"8, ""permTM"", 10, 70",8,10,0,FatTreeTopology.Pod[1].racks[0].servers[2].ppp[0].queue,dropPk:count,0
General-2195-20190624-07:00:54-79360,"8, ""permTM"", 10, 70",8,10,0,FatTreeTopology.Pod[1].racks[0].servers[3].ppp[0].queue,dropPk:count,0
General-2195-20190624-07:00:54-79360,"8, ""permTM"", 10, 70",8,10,0,FatTreeTopology.Pod[1].racks[1].servers[0].ppp[0].queue,dropPk:count,0
General-2195-20190624-07:00:54-79360,"8, ""permTM"", 10, 70",8,10,0,FatTreeTopology.Pod[1].racks[1].servers[1].ppp[0].queue,dropPk:count,0
General-2195-20190624-07:00:54-79360,"8, ""permTM"", 10, 70",8,10,0,FatTreeTopology.Pod[1].racks[1].servers[2].ppp[0].queue,dropPk:count,0
General-2195-20190624-07:00:54-79360,"8, ""permTM"", 10, 70",8,10,0,FatTreeTopology.Pod[1].racks[1].servers[3].ppp[0].queue,dropPk:count,0
General-2195-20190624-07:00:54-79360,"8, ""permTM"", 10, 70",8,10,0,FatTreeTopology.Pod[1].racks[2].servers[0].ppp[0].queue,dropPk:count,0
General-2195-20190624-07:00:54-79360,"8, ""permTM"", 10, 70",8,10,0,FatTreeTopology.Pod[1].racks[2].servers[1].ppp[0].queue,dropPk:count,0
General-2195-20190624-07:00:54-79360,"8, ""permTM"", 10, 70",8,10,0,FatTreeTopology.Pod[1].racks[2].servers[2].ppp[0].queue,dropPk:count,0
General-2195-20190624-07:00:54-79360,"8, ""permTM"", 10, 70",8,10,0,FatTreeTopology.Pod[1].racks[2].servers[3].ppp[0].queue,dropPk:count,0
General-2195-20190624-07:00:54-79360,"8, ""permTM"", 10, 70",8,10,0,FatTreeTopology.Pod[1].racks[3].servers[0].ppp[0].queue,dropPk:count,0
General-2195-20190624-07:00:54-79360,"8, ""permTM"", 10, 70",8,10,0,FatTreeTopology.Pod[1].racks[3].servers[1].ppp[0].queue,dropPk:count,0
General-2195-20190624-07:00:54-79360,"8, ""permTM"", 10, 70",8,10,0,FatTreeTopology.Pod[1].racks[3].servers[2].ppp[0].queue,dropPk:count,0
General-2195-20190624-07:00:54-79360,"8, ""permTM"", 10, 70",8,10,0,FatTreeTopology.Pod[1].racks[3].servers[3].ppp[0].queue,dropPk:count,0
General-2195-20190624-07:00:54-79360,"8, ""permTM"", 10, 70",8,10,0,FatTreeTopology.Pod[2].racks[0].servers[0].ppp[0].queue,dropPk:count,0
General-2195-20190624-07:00:54-79360,"8, ""permTM"", 10, 70",8,10,0,FatTreeTopology.Pod[2].racks[0].servers[1].ppp[0].queue,dropPk:count,0
General-2195-20190624-07:00:54-79360,"8, ""permTM"", 10, 70",8,10,0,FatTreeTopology.Pod[2].racks[0].servers[2].ppp[0].queue,dropPk:count,0
General-2195-20190624-07:00:54-79360,"8, ""permTM"", 10, 70",8,10,0,FatTreeTopology.Pod[2].racks[0].servers[3].ppp[0].queue,dropPk:count,0
General-2195-20190624-07:00:54-79360,"8, ""permTM"", 10, 70",8,10,0,FatTreeTopology.Pod[2].racks[1].servers[0].ppp[0].queue,dropPk:count,0
General-2195-20190624-07:00:54-79360,"8, ""permTM"", 10, 70",8,10,0,FatTreeTopology.Pod[2].racks[1].servers[1].ppp[0].queue,dropPk:count,0
General-2195-20190624-07:00:54-79360,"8, ""permTM"", 10, 70",8,10,0,FatTreeTopology.Pod[2].racks[1].servers[2].ppp[0].queue,dropPk:count,0
General-2195-20190624-07:00:54-79360,"8, ""permTM"", 10, 70",8,10,0,FatTreeTopology.Pod[2].racks[1].servers[3].ppp[0].queue,dropPk:count,0
General-2195-20190624-07:00:54-79360,"8, ""permTM"", 10, 70",8,10,0,FatTreeTopology.Pod[2].racks[2].servers[0].ppp[0].queue,dropPk:count,0
General-2195-20190624-07:00:54-79360,"8, ""permTM"", 10, 70",8,10,0,FatTreeTopology.Pod[2].racks[2].servers[1].ppp[0].queue,dropPk:count,0
General-2195-20190624-07:00:54-79360,"8, ""permTM"", 10, 70",8,10,0,FatTreeTopology.Pod[2].racks[2].servers[2].ppp[0].queue,dropPk:count,0
General-2195-20190624-07:00:54-79360,"8, ""permTM"", 10, 70",8,10,0,FatTreeTopology.Pod[2].racks[2].servers[3].ppp[0].queue,dropPk:count,0
General-2195-20190624-07:00:54-79360,"8, ""permTM"", 10, 70",8,10,0,FatTreeTopology.Pod[2].racks[3].servers[0].ppp[0].queue,dropPk:count,0
General-2195-20190624-07:00:54-79360,"8, ""permTM"", 10, 70",8,10,0,FatTreeTopology.Pod[2].racks[3].servers[1].ppp[0].queue,dropPk:count,0
General-2195-20190624-07:00:54-79360,"8, ""permTM"", 10, 70",8,10,0,FatTreeTopology.Pod[2].racks[3].servers[2].ppp[0].queue,dropPk:count,0
General-2195-20190624-07:00:54-79360,"8, ""permTM"", 10, 70",8,10,0,FatTreeTopology.Pod[2].racks[3].servers[3].ppp[0].queue,dropPk:count,0
General-2195-20190624-07:00:54-79360,"8, ""permTM"", 10, 70",8,10,0,FatTreeTopology.Pod[3].racks[0].servers[0].ppp[0].queue,dropPk:count,0
General-2195-20190624-07:00:54-79360,"8, ""permTM"", 10, 70",8,10,0,FatTreeTopology.Pod[3].racks[0].servers[1].ppp[0].queue,dropPk:count,0
General-2195-20190624-07:00:54-79360,"8, ""permTM"", 10, 70",8,10,0,FatTreeTopology.Pod[3].racks[0].servers[2].ppp[0].queue,dropPk:count,0
General-2195-20190624-07:00:54-79360,"8, ""permTM"", 10, 70",8,10,0,FatTreeTopology.Pod[3].racks[0].servers[3].ppp[0].queue,dropPk:count,0
General-2195-20190624-07:00:54-79360,"8, ""permTM"", 10, 70",8,10,0,FatTreeTopology.Pod[3].racks[1].servers[0].ppp[0].queue,dropPk:count,0
General-2195-20190624-07:00:54-79360,"8, ""permTM"", 10, 70",8,10,0,FatTreeTopology.Pod[3].racks[1].servers[1].ppp[0].queue,dropPk:count,0
General-2195-20190624-07:00:54-79360,"8, ""permTM"", 10, 70",8,10,0,FatTreeTopology.Pod[3].racks[1].servers[2].ppp[0].queue,dropPk:count,0
General-2195-20190624-07:00:54-79360,"8, ""permTM"", 10, 70",8,10,0,FatTreeTopology.Pod[3].racks[1].servers[3].ppp[0].queue,dropPk:count,0
General-2195-20190624-07:00:54-79360,"8, ""permTM"", 10, 70",8,10,0,FatTreeTopology.Pod[3].racks[2].servers[0].ppp[0].queue,dropPk:count,0
General-2195-20190624-07:00:54-79360,"8, ""permTM"", 10, 70",8,10,0,FatTreeTopology.Pod[3].racks[2].servers[1].ppp[0].queue,dropPk:count,0
General-2195-20190624-07:00:54-79360,"8, ""permTM"", 10, 70",8,10,0,FatTreeTopology.Pod[3].racks[2].servers[2].ppp[0].queue,dropPk:count,0
General-2195-20190624-07:00:54-79360,"8, ""permTM"", 10, 70",8,10,0,FatTreeTopology.Pod[3].racks[2].servers[3].ppp[0].queue,dropPk:count,0
General-2195-20190624-07:00:54-79360,"8, ""permTM"", 10, 70",8,10,0,FatTreeTopology.Pod[3].racks[3].servers[0].ppp[0].queue,dropPk:count,0
General-2195-20190624-07:00:54-79360,"8, ""permTM"", 10, 70",8,10,0,FatTreeTopology.Pod[3].racks[3].servers[1].ppp[0].queue,dropPk:count,0
General-2195-20190624-07:00:54-79360,"8, ""permTM"", 10, 70",8,10,0,FatTreeTopology.Pod[3].racks[3].servers[2].ppp[0].queue,dropPk:count,0
General-2195-20190624-07:00:54-79360,"8, ""permTM"", 10, 70",8,10,0,FatTreeTopology.Pod[3].racks[3].servers[3].ppp[0].queue,dropPk:count,0
General-2195-20190624-07:00:54-79360,"8, ""permTM"", 10, 70",8,10,0,FatTreeTopology.Pod[4].racks[0].servers[0].ppp[0].queue,dropPk:count,0
General-2195-20190624-07:00:54-79360,"8, ""permTM"", 10, 70",8,10,0,FatTreeTopology.Pod[4].racks[0].servers[1].ppp[0].queue,dropPk:count,0
General-2195-20190624-07:00:54-79360,"8, ""permTM"", 10, 70",8,10,0,FatTreeTopology.Pod[4].racks[0].servers[2].ppp[0].queue,dropPk:count,0
General-2195-20190624-07:00:54-79360,"8, ""permTM"", 10, 70",8,10,0,FatTreeTopology.Pod[4].racks[0].servers[3].ppp[0].queue,dropPk:count,0
General-2195-20190624-07:00:54-79360,"8, ""permTM"", 10, 70",8,10,0,FatTreeTopology.Pod[4].racks[1].servers[0].ppp[0].queue,dropPk:count,0
General-2195-20190624-07:00:54-79360,"8, ""permTM"", 10, 70",8,10,0,FatTreeTopology.Pod[4].racks[1].servers[1].ppp[0].queue,dropPk:count,0
General-2195-20190624-07:00:54-79360,"8, ""permTM"", 10, 70",8,10,0,FatTreeTopology.Pod[4].racks[1].servers[2].ppp[0].queue,dropPk:count,0
General-2195-20190624-07:00:54-79360,"8, ""permTM"", 10, 70",8,10,0,FatTreeTopology.Pod[4].racks[1].servers[3].ppp[0].queue,dropPk:count,0
General-2195-20190624-07:00:54-79360,"8, ""permTM"", 10, 70",8,10,0,FatTreeTopology.Pod[4].racks[2].servers[0].ppp[0].queue,dropPk:count,0
General-2195-20190624-07:00:54-79360,"8, ""permTM"", 10, 70",8,10,0,FatTreeTopology.Pod[4].racks[2].servers[1].ppp[0].queue,dropPk:count,0
General-2195-20190624-07:00:54-79360,"8, ""permTM"", 10, 70",8,10,0,FatTreeTopology.Pod[4].racks[2].servers[2].ppp[0].queue,dropPk:count,0
General-2195-20190624-07:00:54-79360,"8, ""permTM"", 10, 70",8,10,0,FatTreeTopology.Pod[4].racks[2].servers[3].ppp[0].queue,dropPk:count,0
General-2195-20190624-07:00:54-79360,"8, ""permTM"", 10, 70",8,10,0,FatTreeTopology.Pod[4].racks[3].servers[0].ppp[0].queue,dropPk:count,0
General-2195-20190624-07:00:54-79360,"8, ""permTM"", 10, 70",8,10,0,FatTreeTopology.Pod[4].racks[3].servers[1].ppp[0].queue,dropPk:count,0
General-2195-20190624-07:00:54-79360,"8, ""permTM"", 10, 70",8,10,0,FatTreeTopology.Pod[4].racks[3].servers[2].ppp[0].queue,dropPk:count,0
General-2195-20190624-07:00:54-79360,"8, ""permTM"", 10, 70",8,10,0,FatTreeTopology.Pod[4].racks[3].servers[3].ppp[0].queue,dropPk:count,0
General-2195-20190624-07:00:54-79360,"8, ""permTM"", 10, 70",8,10,0,FatTreeTopology.Pod[5].racks[0].servers[0].ppp[0].queue,dropPk:count,0
General-2195-20190624-07:00:54-79360,"8, ""permTM"", 10, 70",8,10,0,FatTreeTopology.Pod[5].racks[0].servers[1].ppp[0].queue,dropPk:count,0
General-2195-20190624-07:00:54-79360,"8, ""permTM"", 10, 70",8,10,0,FatTreeTopology.Pod[5].racks[0].servers[2].ppp[0].queue,dropPk:count,0
General-2195-20190624-07:00:54-79360,"8, ""permTM"", 10, 70",8,10,0,FatTreeTopology.Pod[5].racks[0].servers[3].ppp[0].queue,dropPk:count,0
General-2195-20190624-07:00:54-79360,"8, ""permTM"", 10, 70",8,10,0,FatTreeTopology.Pod[5].racks[1].servers[0].ppp[0].queue,dropPk:count,0
General-2195-20190624-07:00:54-79360,"8, ""permTM"", 10, 70",8,10,0,FatTreeTopology.Pod[5].racks[1].servers[1].ppp[0].queue,dropPk:count,0
General-2195-20190624-07:00:54-79360,"8, ""permTM"", 10, 70",8,10,0,FatTreeTopology.Pod[5].racks[1].servers[2].ppp[0].queue,dropPk:count,0
General-2195-20190624-07:00:54-79360,"8, ""permTM"", 10, 70",8,10,0,FatTreeTopology.Pod[5].racks[1].servers[3].ppp[0].queue,dropPk:count,0
General-2195-20190624-07:00:54-79360,"8, ""permTM"", 10, 70",8,10,0,FatTreeTopology.Pod[5].racks[2].servers[0].ppp[0].queue,dropPk:count,0
General-2195-20190624-07:00:54-79360,"8, ""permTM"", 10, 70",8,10,0,FatTreeTopology.Pod[5].racks[2].servers[1].ppp[0].queue,dropPk:count,0
General-2195-20190624-07:00:54-79360,"8, ""permTM"", 10, 70",8,10,0,FatTreeTopology.Pod[5].racks[2].servers[2].ppp[0].queue,dropPk:count,0
General-2195-20190624-07:00:54-79360,"8, ""permTM"", 10, 70",8,10,0,FatTreeTopology.Pod[5].racks[2].servers[3].ppp[0].queue,dropPk:count,0
General-2195-20190624-07:00:54-79360,"8, ""permTM"", 10, 70",8,10,0,FatTreeTopology.Pod[5].racks[3].servers[0].ppp[0].queue,dropPk:count,0
General-2195-20190624-07:00:54-79360,"8, ""permTM"", 10, 70",8,10,0,FatTreeTopology.Pod[5].racks[3].servers[1].ppp[0].queue,dropPk:count,0
General-2195-20190624-07:00:54-79360,"8, ""permTM"", 10, 70",8,10,0,FatTreeTopology.Pod[5].racks[3].servers[2].ppp[0].queue,dropPk:count,0
General-2195-20190624-07:00:54-79360,"8, ""permTM"", 10, 70",8,10,0,FatTreeTopology.Pod[5].racks[3].servers[3].ppp[0].queue,dropPk:count,0
General-2195-20190624-07:00:54-79360,"8, ""permTM"", 10, 70",8,10,0,FatTreeTopology.Pod[6].racks[0].servers[0].ppp[0].queue,dropPk:count,0
General-2195-20190624-07:00:54-79360,"8, ""permTM"", 10, 70",8,10,0,FatTreeTopology.Pod[6].racks[0].servers[1].ppp[0].queue,dropPk:count,0
General-2195-20190624-07:00:54-79360,"8, ""permTM"", 10, 70",8,10,0,FatTreeTopology.Pod[6].racks[0].servers[2].ppp[0].queue,dropPk:count,0
General-2195-20190624-07:00:54-79360,"8, ""permTM"", 10, 70",8,10,0,FatTreeTopology.Pod[6].racks[0].servers[3].ppp[0].queue,dropPk:count,0
General-2195-20190624-07:00:54-79360,"8, ""permTM"", 10, 70",8,10,0,FatTreeTopology.Pod[6].racks[1].servers[0].ppp[0].queue,dropPk:count,0
General-2195-20190624-07:00:54-79360,"8, ""permTM"", 10, 70",8,10,0,FatTreeTopology.Pod[6].racks[1].servers[1].ppp[0].queue,dropPk:count,0
General-2195-20190624-07:00:54-79360,"8, ""permTM"", 10, 70",8,10,0,FatTreeTopology.Pod[6].racks[1].servers[2].ppp[0].queue,dropPk:count,0
General-2195-20190624-07:00:54-79360,"8, ""permTM"", 10, 70",8,10,0,FatTreeTopology.Pod[6].racks[1].servers[3].ppp[0].queue,dropPk:count,0
General-2195-20190624-07:00:54-79360,"8, ""permTM"", 10, 70",8,10,0,FatTreeTopology.Pod[6].racks[2].servers[0].ppp[0].queue,dropPk:count,0
General-2195-20190624-07:00:54-79360,"8, ""permTM"", 10, 70",8,10,0,FatTreeTopology.Pod[6].racks[2].servers[1].ppp[0].queue,dropPk:count,0
General-2195-20190624-07:00:54-79360,"8, ""permTM"", 10, 70",8,10,0,FatTreeTopology.Pod[6].racks[2].servers[2].ppp[0].queue,dropPk:count,0
General-2195-20190624-07:00:54-79360,"8, ""permTM"", 10, 70",8,10,0,FatTreeTopology.Pod[6].racks[2].servers[3].ppp[0].queue,dropPk:count,0
General-2195-20190624-07:00:54-79360,"8, ""permTM"", 10, 70",8,10,0,FatTreeTopology.Pod[6].racks[3].servers[0].ppp[0].queue,dropPk:count,0
General-2195-20190624-07:00:54-79360,"8, ""permTM"", 10, 70",8,10,0,FatTreeTopology.Pod[6].racks[3].servers[1].ppp[0].queue,dropPk:count,0
General-2195-20190624-07:00:54-79360,"8, ""permTM"", 10, 70",8,10,0,FatTreeTopology.Pod[6].racks[3].servers[2].ppp[0].queue,dropPk:count,0
General-2195-20190624-07:00:54-79360,"8, ""permTM"", 10, 70",8,10,0,FatTreeTopology.Pod[6].racks[3].servers[3].ppp[0].queue,dropPk:count,0
General-2195-20190624-07:00:54-79360,"8, ""permTM"", 10, 70",8,10,0,FatTreeTopology.Pod[7].racks[0].servers[0].ppp[0].queue,dropPk:count,0
General-2195-20190624-07:00:54-79360,"8, ""permTM"", 10, 70",8,10,0,FatTreeTopology.Pod[7].racks[0].servers[1].ppp[0].queue,dropPk:count,0
General-2195-20190624-07:00:54-79360,"8, ""permTM"", 10, 70",8,10,0,FatTreeTopology.Pod[7].racks[0].servers[2].ppp[0].queue,dropPk:count,0
General-2195-20190624-07:00:54-79360,"8, ""permTM"", 10, 70",8,10,0,FatTreeTopology.Pod[7].racks[0].servers[3].ppp[0].queue,dropPk:count,0
General-2195-20190624-07:00:54-79360,"8, ""permTM"", 10, 70",8,10,0,FatTreeTopology.Pod[7].racks[1].servers[0].ppp[0].queue,dropPk:count,0
General-2195-20190624-07:00:54-79360,"8, ""permTM"", 10, 70",8,10,0,FatTreeTopology.Pod[7].racks[1].servers[1].ppp[0].queue,dropPk:count,0
General-2195-20190624-07:00:54-79360,"8, ""permTM"", 10, 70",8,10,0,FatTreeTopology.Pod[7].racks[1].servers[2].ppp[0].queue,dropPk:count,0
General-2195-20190624-07:00:54-79360,"8, ""permTM"", 10, 70",8,10,0,FatTreeTopology.Pod[7].racks[1].servers[3].ppp[0].queue,dropPk:count,0
General-2195-20190624-07:00:54-79360,"8, ""permTM"", 10, 70",8,10,0,FatTreeTopology.Pod[7].racks[2].servers[0].ppp[0].queue,dropPk:count,0
General-2195-20190624-07:00:54-79360,"8, ""permTM"", 10, 70",8,10,0,FatTreeTopology.Pod[7].racks[2].servers[1].ppp[0].queue,dropPk:count,0
General-2195-20190624-07:00:54-79360,"8, ""permTM"", 10, 70",8,10,0,FatTreeTopology.Pod[7].racks[2].servers[2].ppp[0].queue,dropPk:count,0
General-2195-20190624-07:00:54-79360,"8, ""permTM"", 10, 70",8,10,0,FatTreeTopology.Pod[7].racks[2].servers[3].ppp[0].queue,dropPk:count,0
General-2195-20190624-07:00:54-79360,"8, ""permTM"", 10, 70",8,10,0,FatTreeTopology.Pod[7].racks[3].servers[0].ppp[0].queue,dropPk:count,0
General-2195-20190624-07:00:54-79360,"8, ""permTM"", 10, 70",8,10,0,FatTreeTopology.Pod[7].racks[3].servers[1].ppp[0].queue,dropPk:count,0
General-2195-20190624-07:00:54-79360,"8, ""permTM"", 10, 70",8,10,0,FatTreeTopology.Pod[7].racks[3].servers[2].ppp[0].queue,dropPk:count,0
General-2195-20190624-07:00:54-79360,"8, ""permTM"", 10, 70",8,10,0,FatTreeTopology.Pod[7].racks[3].servers[3].ppp[0].queue,dropPk:count,0
